﻿53;90;175;1;29,3877551;0;1;1;0;0;1;0;0;0;0;0;1;110;80;0;0;0;0;0;0;0;0;0;0;0;0;0;0;1;1;0;0;0;90;0,7;250;155;30;8;7;15,6;4,7;141;5700;39;52;261;50;0;0;1
67;70;157;2;28,398718;0;1;0;0;0;1;0;0;0;0;0;0;140;80;1;0;0;0;0;1;0;0;0;0;0;0;0;0;1;1;0;0;0;80;1;309;121;36;30;26;13,9;4,7;156;7700;38;55;165;40;4;0;1
54;54;164;1;20,07733492;0;0;1;0;0;0;0;0;0;0;0;0;100;100;0;0;0;0;0;1;0;0;0;0;0;0;0;0;0;0;0;0;0;85;1;103;70;45;17;10;13,5;4,7;139;7400;38;60;230;40;2;2;1
66;67;158;2;26,83864765;0;1;0;0;0;1;0;0;0;0;0;0;100;80;0;0;0;0;1;0;1;3;0;1;0;0;0;0;1;0;0;0;0;78;1,2;63;55;27;30;76;12,1;4,4;142;13000;18;72;742;55;0;3;0
50;87;153;2;37,16519287;0;1;0;0;0;1;0;0;0;0;0;0;110;80;0;0;0;1;0;0;1;2;0;0;0;0;0;0;0;0;0;0;0;104;1;170;110;50;16;27;13,2;4;140;9200;55;39;274;50;0;3;0
50;75;175;1;24,48979592;0;0;1;0;0;0;0;0;0;0;0;0;118;70;0;0;0;0;0;1;0;3;0;0;0;0;0;0;0;0;0;0;0;86;1;139;119;34;13;18;15,6;4,2;141;7300;26;66;194;50;0;0;1
55;80;165;1;29,38475666;0;0;0;1;0;1;0;0;0;0;0;0;110;80;0;0;0;1;0;1;0;0;0;0;0;0;1;1;0;1;0;0;0;80;0,8;83;85;34;12;38;14,1;4,8;139;9400;58;33;292;40;4;2;1
72;80;175;1;26,12244898;1;0;1;0;0;1;0;0;0;0;0;1;130;70;0;0;0;0;0;1;0;0;0;0;0;0;0;0;1;1;0;0;0;130;0,9;80;90;55;19;4;16,1;4,3;142;12200;25;74;410;45;4;2;1
58;84;163;2;31,61579284;0;0;0;0;0;1;0;0;0;0;0;0;90;50;0;0;0;0;0;0;1;0;0;1;0;0;0;0;0;0;0;0;0;69;0,6;79;90;59;15;5;11,6;3,4;139;5100;49;50;370;50;0;0;0
60;71;170;1;24,56747405;1;0;0;0;0;0;0;0;0;0;0;0;130;70;0;0;0;0;0;1;1;2;0;0;0;0;0;0;0;0;0;0;2;209;1,3;80;90;44;16;8;13,9;4,6;140;4900;55;42;380;40;2;0;1
58;75;168;1;26,57312925;0;1;0;1;0;1;0;0;0;0;0;0;170;70;0;0;0;0;0;1;1;2;0;0;0;0;0;0;0;0;0;0;0;101;0,8;160;101;33;19;11;14,5;4,2;142;5800;44;52;201;50;0;2;1
80;67;153;2;28,62147037;0;1;0;0;0;1;0;0;0;0;0;1;140;100;0;0;0;0;0;1;0;3;0;0;0;0;0;0;1;1;0;0;0;85;1,3;104;112;44;18;47;10;4,3;128;11000;31;66;290;50;3;2;1
70;70;151;2;30,70040788;1;1;0;0;0;1;0;0;0;0;0;1;140;84;0;0;0;1;0;0;0;0;1;0;0;0;0;0;1;1;1;0;0;170;1;235;148;25;12;80;12,3;4,3;148;11300;25;70;380;25;4;4;1
67;63;154;2;26,56434475;1;1;0;0;0;1;0;0;0;0;0;1;150;74;0;0;0;0;0;0;1;2;1;0;0;0;0;0;0;1;0;0;0;183;1,1;358;118;32;20;18;14,3;4,5;139;8100;31;65;254;55;2;2;1
66;63;155;2;26,2226847;1;1;0;0;0;1;0;0;0;0;0;1;130;80;0;0;0;0;0;0;1;2;1;0;0;0;0;0;1;0;0;0;0;213;0,7;125;110;30;12;31;12,9;4,3;139;6400;60;39;217;55;0;2;1
59;81;167;1;29,04370899;1;0;0;0;0;1;0;0;0;0;0;1;120;70;0;0;0;0;0;1;1;0;0;0;0;0;0;0;0;0;0;0;0;218;1,1;130;110;45;11;19;13,3;4,7;146;12100;30;70;280;30;0;4;1
41;68;169;1;23,80869017;0;0;1;0;0;0;0;0;0;0;0;0;130;80;0;0;0;1;0;0;1;2;0;0;0;0;0;0;0;0;0;0;0;65;1,1;69;130;22;14;13;11,4;4,6;148;7800;48;50;199;35;0;3;0
68;59;161;2;22,76146754;0;0;0;0;1;0;0;0;0;0;0;1;115;70;0;0;0;0;0;0;0;0;1;0;0;0;0;0;0;0;0;0;0;84;0,9;114;91;31;23;12;13;4,6;141;4900;35;60;194;60;0;0;0
60;89;163;2;33,49768527;1;1;0;0;0;1;0;0;0;0;0;0;110;74;0;0;0;0;0;1;0;0;0;0;0;0;0;0;1;0;0;0;0;240;0,9;170;93;46;16;17;13,1;3,5;140;3700;30;68;180;55;0;0;1
65;72;150;2;32;1;1;0;0;0;1;1;0;0;0;0;1;150;70;0;0;0;0;0;1;0;0;0;0;0;0;0;0;1;0;0;0;0;227;1;230;82;34;18;26;12,4;3,8;145;5300;45;50;227;50;1;0;1
47;84;170;2;29,06574394;0;0;0;0;1;1;0;0;0;0;0;0;130;70;0;0;0;0;0;0;0;0;1;0;0;0;0;0;0;0;0;0;0;104;1;106;137;42;10;12;15,4;4,3;142;6500;40;60;184;50;0;0;1
66;89;151;2;39,03337573;0;1;0;0;0;1;0;0;0;0;0;0;130;80;0;0;0;0;0;1;0;0;0;0;0;0;0;0;0;0;0;0;0;99;1,1;247;139;35;16;22;10;4,3;143;5600;34;60;194;55;0;0;1
66;75;170;1;25,95155709;1;1;0;0;0;1;0;0;0;0;0;0;150;80;0;0;0;0;0;1;0;0;0;0;0;0;0;0;1;1;0;0;0;183;1,3;74;99;43;15;9;14,9;3,6;135;7600;32;66;184;30;0;0;1
72;66;161;2;25,46198063;1;1;0;0;0;1;0;0;0;0;0;0;160;76;0;0;0;0;0;1;1;0;0;0;0;0;0;0;0;0;0;0;0;154;0,7;190;112;57;12;20;13,5;4,9;138;9600;28;72;190;50;0;0;1
50;66;164;2;24,5389649;1;0;0;0;1;0;0;0;0;0;0;0;130;60;0;0;0;0;0;1;0;0;0;0;0;0;0;0;0;1;0;0;0;180;0,9;84;140;40;18;12;12,7;4,6;138;5800;31;60;180;50;0;0;1
65;74;164;1;27,51338489;0;0;0;0;0;1;0;0;0;0;0;0;110;80;0;0;0;0;0;1;0;0;0;0;0;0;0;1;0;1;0;0;0;90;1,3;140;107;33;19;2;14,8;5;143;9300;30;70;192;45;3;2;1
56;73;173;1;24,39105884;0;0;0;0;0;0;0;0;0;0;0;1;110;75;0;0;1;1;1;0;1;2;0;0;0;0;0;0;0;0;0;0;0;84;1,3;103;83;30;22;6;14,4;3,2;141;5900;28;72;230;35;0;3;0
50;81;165;1;29,75206612;0;1;0;0;0;1;0;0;0;0;0;1;110;80;0;0;0;0;0;0;0;0;1;0;0;0;0;0;0;0;0;0;0;71;0,7;340;163;46;10;8;14,9;4,5;144;6900;22;70;245;50;0;0;1
80;51;148;2;23,28341855;0;1;0;0;0;0;0;0;0;0;0;1;160;70;0;0;0;0;0;1;0;0;0;0;0;1;0;0;1;0;0;0;0;94;1;168;117;39;13;12;12,3;5,1;149;12400;40;55;260;40;4;2;1
65;61;150;2;27,11111111;1;1;0;0;0;1;0;0;0;0;0;1;140;82;0;0;0;0;0;1;0;0;0;0;0;0;0;0;0;0;0;0;0;192;1,9;190;82;44;30;25;12,4;3,9;146;8100;44;52;290;45;0;2;1
59;75;156;2;30,81854043;0;0;0;0;0;1;0;0;0;0;0;1;135;80;0;0;0;0;0;1;0;2;0;0;0;0;0;0;0;0;0;0;3;120;0,9;282;156;53;12;58;12,6;3,2;150;5800;29;63;198;50;0;2;1
52;74;180;1;22,83950617;1;1;0;0;0;0;0;0;1;0;0;1;130;64;0;0;0;0;0;1;1;2;0;0;0;0;0;0;1;0;0;0;0;225;0,9;177;113;53;22;6;14,3;4,3;146;6600;49;48;178;55;2;2;1
55;76;150;2;33,77777778;1;0;0;0;1;1;0;0;0;0;0;0;120;74;0;0;0;0;0;1;0;0;0;0;0;0;0;0;1;0;0;0;0;201;0,8;167;140;44;20;25;12;5,4;143;6800;32;63;289;50;0;2;1
60;79;174;1;26,0932752;1;1;0;0;0;1;0;0;0;0;0;1;130;70;0;0;0;0;0;1;0;0;0;0;0;0;0;0;0;0;0;0;0;84;1,5;242;167;39;24;12;13,2;4,4;139;5100;50;40;156;55;2;2;1
55;80;167;1;28,68514468;0;0;0;0;0;1;0;0;0;0;1;1;100;100;0;0;0;1;0;0;1;3;0;0;0;0;1;0;0;0;0;0;0;89;1,5;240;88;35;26;6;13,9;5,4;130;10000;30;70;210;20;4;4;1
47;75;153;2;32,03895937;0;1;0;0;1;1;0;0;0;0;0;1;100;70;0;0;0;0;0;0;0;0;1;0;0;0;0;0;0;0;0;0;0;83;0,9;170;166;32;36;13;13,6;4,1;139;6800;45;53;189;55;0;0;0
69;65;153;2;27,76709812;0;1;0;0;0;1;0;0;0;0;0;1;140;64;0;0;0;0;0;1;1;2;0;0;0;0;0;0;0;0;0;0;0;95;1,1;198;94;47;14;46;10;5;138;6000;40;55;180;55;2;2;1
54;74;162;1;28,1969212;0;1;0;0;1;1;0;0;0;0;0;0;170;64;1;0;1;1;0;0;1;3;1;0;0;0;0;0;1;0;0;0;0;90;1,9;101;98;44;16;10;11;3,8;142;12100;41;58;194;20;4;2;1
76;56;163;1;21,07719523;1;0;0;0;0;0;0;0;0;0;0;1;100;70;1;0;1;0;0;0;1;2;0;0;0;0;0;0;1;0;0;0;0;230;1,15;90;122;41;25;2;10;4,9;130;18000;40;60;340;35;4;4;1
46;80;175;1;26,12244898;1;1;0;0;0;1;0;0;0;0;0;0;130;70;0;0;0;0;0;1;0;3;0;0;0;0;1;1;0;1;0;0;0;153;0,6;204;110;39;15;22;13,4;4;142;8000;40;45;230;20;4;4;1
76;89;186;1;25,7255174;0;1;1;0;0;1;0;0;0;0;0;0;160;75;0;0;0;1;0;0;1;3;0;0;0;0;0;0;0;0;0;0;2;90;0,8;300;70;30;14;8;14,5;4,5;141;6600;22;63;208;25;4;2;1
40;81;171;1;27,70083102;0;0;0;0;0;1;0;0;0;0;0;0;110;70;0;0;0;0;0;0;0;0;1;0;0;0;0;0;0;0;0;0;0;80;0,9;224;131;32;12;12;15;4,3;139;10000;33;60;245;50;0;0;0
43;74;149;2;33,3318319;0;1;0;0;0;1;0;0;0;0;0;0;180;80;0;0;0;0;0;0;1;0;0;1;0;0;0;0;1;1;0;0;0;90;0,8;123;110;47;10;11;12,7;3,8;142;6100;44;50;295;55;0;0;0
60;80;165;2;29,38475666;0;1;1;0;0;1;0;0;0;0;0;0;140;70;0;0;0;0;0;0;1;0;1;0;0;1;0;0;1;0;0;0;0;85;1,1;310;110;54;21;10;12,6;3,3;148;6700;59;35;194;45;2;0;1
73;55;148;2;25,10956903;1;1;0;0;0;1;0;0;0;0;0;1;120;70;0;1;0;0;0;0;1;2;0;0;0;0;0;0;0;1;0;0;0;62;0,5;99;153;31;11;90;10,7;4,1;140;7800;30;60;330;45;0;2;1
51;72;171;1;24,62296091;0;0;0;0;1;0;0;0;0;0;0;0;110;70;0;0;1;0;0;1;0;2;0;0;0;0;1;0;1;0;0;0;0;80;0,8;140;104;37;10;17;11,5;4,3;138;7100;19;70;118;35;4;2;1
57;80;161;2;30,86300683;0;1;0;0;0;1;0;0;0;0;0;0;140;80;0;0;0;0;0;1;1;0;0;0;0;0;0;0;0;0;1;0;0;106;0,9;90;77;36;19;11;13;4,3;141;5800;42;41;222;45;0;2;1
68;72;168;2;25,51020408;1;0;0;0;0;1;0;0;0;0;0;0;130;70;0;0;0;0;0;1;0;2;0;0;0;0;0;0;1;0;0;0;0;140;0,9;305;199;56;17;34;14;4,5;142;7600;34;63;332;45;0;0;1
53;61;154;2;25,72103221;0;0;0;0;0;1;0;0;0;0;0;0;135;100;0;0;0;1;1;0;1;3;0;0;0;0;0;0;0;0;0;0;0;84;0,8;75;171;45;15;17;14;3,9;140;7900;31;60;261;55;0;3;0
61;70;162;2;26,6727633;1;1;0;0;0;1;0;1;0;0;0;0;140;70;0;0;0;0;0;0;0;0;1;0;0;0;0;0;0;0;0;0;0;105;1;99;98;36;17;20;13,4;3,5;142;5300;40;52;174;45;0;2;1
73;78;163;1;29,35752192;0;1;0;0;0;1;0;0;0;0;0;0;140;80;0;0;0;1;1;0;1;2;1;0;0;0;0;0;0;1;0;0;0;83;1,4;110;97;52;23;3;14,5;4,5;145;5300;38;49;172;45;0;4;1
55;65;160;2;25,390625;1;1;0;0;0;1;0;0;0;0;0;0;130;68;0;0;0;0;0;1;0;0;0;0;0;0;0;0;0;0;0;0;0;190;0,8;216;113;30;18;13;13,5;3,8;143;6400;42;50;262;50;0;2;1
73;54;154;2;22,76943835;0;0;0;0;0;0;0;0;0;0;0;0;120;70;0;0;0;0;0;1;0;0;0;0;0;0;0;0;1;0;0;0;0;106;0,8;115;112;43;14;31;11,2;4,1;142;6700;17;76;221;40;4;2;1
48;76;172;1;25,68956193;0;0;1;0;1;1;0;0;0;0;0;0;120;70;0;0;0;0;0;0;0;0;0;0;0;0;0;0;1;0;0;0;0;101;1,1;180;90;27;9;12;14;4;139;14000;30;70;261;55;2;0;1
56;68;166;1;24,67702134;0;0;0;0;0;0;0;0;0;0;0;0;110;90;0;0;1;1;1;0;1;0;0;1;0;0;0;0;0;0;0;0;0;77;0,8;85;110;36;17;5;13,7;4,1;138;10900;19;66;182;35;0;3;0
53;80;170;1;27,6816609;0;1;1;0;0;1;0;0;0;0;0;0;130;75;0;0;0;0;0;1;0;0;0;0;0;0;0;0;0;1;0;0;0;123;0,9;82;94;31;11;36;14,5;3,7;141;6800;21;67;227;40;1;2;1
65;79;170;2;27,33564014;1;1;0;0;0;1;0;0;0;0;0;0;170;90;0;0;0;1;1;1;1;2;0;0;0;0;0;0;0;0;0;0;0;210;1;85;90;55;17;13;13,1;4,2;139;5000;28;65;253;55;1;4;1
70;66;164;1;24,5389649;0;1;0;0;0;0;0;0;0;0;0;0;130;76;0;0;0;0;0;1;0;2;0;0;0;0;0;0;1;1;0;0;0;70;1,4;132;120;49;33;15;13;4,4;136;5800;38;49;186;45;2;2;1
81;61;165;1;22,40587695;0;0;1;0;0;0;0;0;0;0;0;0;120;80;0;0;0;0;0;0;0;0;1;0;0;0;0;0;1;0;0;0;0;90;0,8;96;75;53;12;6;14,3;4,1;145;5100;31;58;188;55;0;0;1
56;54;160;2;21,09375;0;1;0;0;0;0;0;0;0;0;0;0;150;110;0;0;0;0;0;1;0;0;0;0;0;0;0;0;0;0;0;0;0;97;0,8;171;78;37;10;51;12,2;4,5;141;7800;22;78;185;50;1;2;1
47;75;177;1;23,93948099;0;1;0;0;0;0;0;0;0;0;0;0;160;70;0;0;0;0;0;0;0;0;1;0;0;0;0;0;0;0;0;0;0;95;0,9;126;90;40;11;1;15,3;4,4;138;7600;30;63;217;45;0;2;0
47;63;168;1;22,32142857;0;0;1;0;0;0;0;0;0;0;0;0;110;65;0;0;0;0;0;1;0;2;0;0;0;0;0;0;0;1;0;0;0;88;1;80;70;40;12;19;13,1;4,1;143;7200;22;70;392;60;0;0;1
41;120;183;1;35,83266147;1;1;0;0;1;1;0;0;0;0;0;0;130;70;0;0;0;0;0;0;0;0;1;0;0;0;0;0;0;0;0;0;0;125;0,9;190;145;45;12;2;15,2;5;141;6900;41;50;252;55;0;0;1
68;88;159;2;34,80874965;1;1;0;0;0;1;0;0;0;0;0;0;160;70;0;0;0;0;0;0;1;2;0;0;0;0;0;0;0;0;0;0;0;96;1,3;310;170;30;23;20;12,4;6,6;145;6100;33;56;261;50;1;2;1
55;85;170;1;29,41176471;0;0;1;0;0;1;0;0;0;0;0;0;110;90;0;0;0;1;0;0;1;0;0;1;0;0;0;0;0;0;0;0;0;90;0,9;77;110;36;15;20;13,7;4,4;142;5800;39;54;180;50;0;3;0
53;73;153;2;31,18458712;0;1;0;0;0;1;0;0;0;0;0;0;130;80;0;0;0;0;0;1;0;2;0;0;0;0;0;0;1;1;0;0;0;104;0,6;250;85;35;13;13;12,8;4,3;144;5300;31;59;339;55;0;2;1
53;76;157;2;30,83289383;1;1;0;0;0;1;0;0;0;0;0;0;130;80;0;0;0;0;0;1;1;2;0;0;0;0;0;0;1;1;0;0;0;89;0,9;103;100;55;18;21;12,1;4,4;145;6000;30;60;199;46;3;0;1
30;70;168;1;24,8015873;0;1;0;0;0;0;0;0;0;0;0;0;140;70;0;0;0;0;0;1;0;0;0;0;0;0;0;0;0;0;0;0;0;92;1;290;140;30;17;2;13,8;4;144;7700;36;50;350;55;0;2;0
47;50;162;2;19,05197378;1;1;0;0;0;0;0;0;0;0;0;1;120;70;0;0;0;0;0;0;1;2;0;1;0;0;0;0;0;0;0;0;0;90;0,7;90;110;44;9;12;13,1;4,2;149;5800;40;50;218;50;0;0;0
80;57;154;2;24,03440715;0;0;0;0;0;0;0;0;0;0;0;0;130;70;0;0;0;1;0;1;0;2;0;0;0;0;0;0;1;1;0;0;3;105;0,7;238;156;39;13;7;14,6;4,5;141;7400;40;53;174;55;0;4;1
52;70;162;2;26,6727633;1;1;0;0;0;1;0;0;0;0;0;1;130;70;0;0;0;0;0;0;1;2;1;0;0;0;0;0;0;0;0;0;0;110;0,9;110;89;43;9;12;13,2;4,4;143;4900;55;32;218;55;0;0;0
62;58;175;1;18,93877551;0;1;0;0;0;0;0;0;0;0;0;0;140;70;0;0;0;0;0;1;1;2;0;0;0;0;0;0;0;0;0;0;0;109;1,4;76;112;40;16;50;13;4;140;9200;27;65;178;35;0;2;1
55;77;164;1;28,62879239;0;1;0;0;0;1;0;0;0;0;0;0;140;80;0;0;0;1;0;1;1;2;0;0;0;0;0;0;0;0;1;0;0;115;1;65;121;39;21;21;13,9;4,5;140;7500;32;51;301;50;0;4;1
60;82;168;1;29,05328798;0;1;1;0;0;1;0;0;1;0;0;0;180;70;0;0;0;1;0;1;1;3;0;0;0;0;0;0;0;0;1;0;0;104;1;72;80;55;22;9;15,8;4,5;138;7900;29;60;213;55;0;3;1
60;63;157;2;25,5588462;1;1;0;0;0;1;0;0;0;0;0;1;150;80;0;0;0;0;0;1;0;3;0;0;0;0;1;1;0;0;0;0;0;191;0,8;200;124;46;39;33;12,2;3,8;144;5100;29;67;184;40;3;2;1
49;70;166;2;25,40281608;0;1;0;0;0;1;0;0;0;0;0;1;120;70;0;0;0;0;0;1;0;2;0;0;0;0;0;0;0;0;0;0;0;103;1,5;70;75;66;14;8;11,5;3,8;142;4200;41;50;212;60;0;2;1
70;78;150;2;34,66666667;1;1;0;0;0;1;1;0;0;0;0;1;180;80;0;0;0;0;0;1;1;2;0;0;0;0;0;0;0;0;0;0;0;146;0,8;250;142;35;12;36;12,6;3,9;142;7000;44;50;290;45;0;2;1
70;60;144;2;28,93518519;0;1;0;0;0;1;0;0;0;0;0;0;190;90;0;0;0;0;0;0;0;0;1;0;0;0;0;0;0;0;0;0;0;130;0,7;210;168;43;12;12;12,7;5,3;142;5400;40;55;170;45;0;2;1
66;69;178;1;21,77755334;0;0;1;0;0;0;0;0;0;0;0;0;120;80;0;0;0;0;0;1;1;2;0;0;0;0;0;0;0;0;0;0;3;72;0,7;50;55;35;13;3;13,3;4,2;142;5200;29;56;188;40;2;2;1
52;76;171;1;25,99090318;0;1;0;0;0;1;0;0;0;0;0;1;140;70;0;0;0;0;0;0;1;2;1;0;0;0;0;0;0;0;0;0;0;106;0,8;102;96;36;8;9;15;3,8;144;7000;23;67;224;55;0;0;0
65;81;181;1;24,72452001;1;1;0;0;0;0;0;0;0;0;0;1;110;70;0;0;0;0;0;1;0;0;0;0;0;0;0;0;1;0;0;0;0;196;0,8;89;82;45;9;11;12,3;3,5;139;7900;15;78;171;40;3;4;1
55;76;170;1;26,29757785;0;0;1;0;1;1;0;0;0;0;0;0;90;100;0;0;1;1;0;1;0;0;0;0;0;0;0;1;0;1;0;0;0;175;0,8;167;91;24;21;14;14,2;5,6;131;5500;22;65;232;25;3;2;1
86;64;162;1;24,38652644;1;1;0;0;0;0;0;0;0;0;0;1;160;68;0;0;1;0;0;0;1;0;1;0;0;0;0;0;0;0;0;0;0;270;1,5;62;157;51;43;15;15,6;5;142;14500;44;50;297;50;0;2;1
57;75;149;2;33,78226206;0;1;0;0;0;1;0;1;0;0;0;0;130;110;0;0;1;1;0;0;1;2;0;0;0;0;0;0;0;0;0;0;0;145;0,9;76;96;39;21;13;15,1;4,9;143;7100;37;52;172;20;2;4;1
52;98;160;2;38,28125;1;1;0;0;1;1;0;0;0;0;0;1;105;75;0;0;0;0;0;1;0;3;0;0;0;0;0;0;1;1;0;0;0;130;1,2;260;100;47;19;10;14,5;4,4;138;9400;30;65;208;45;0;0;1
59;65;168;2;23,03004535;0;0;0;0;1;0;0;0;0;0;0;1;125;75;0;0;0;0;0;1;1;0;0;0;0;0;0;0;0;0;0;0;0;99;0,7;98;122;45;13;15;13,6;4,7;145;7100;44;47;265;55;0;0;1
75;93;170;1;32,1799308;1;1;0;0;0;1;0;0;0;0;0;1;130;80;0;0;0;0;0;1;1;3;0;0;0;0;0;0;0;0;0;0;0;124;1,2;95;114;36;18;8;17,2;4,7;139;7600;41;53;194;50;0;2;1
81;76;165;1;27,91551882;0;1;0;0;0;1;0;0;0;0;0;1;180;80;0;0;0;0;0;1;0;0;0;0;0;0;0;0;1;1;0;0;0;91;1,2;98;114;36;17;21;8,9;4,2;143;6300;30;60;216;60;0;0;1
71;70;147;2;32,39390994;0;1;1;0;1;1;0;0;0;0;0;1;120;65;0;0;0;0;0;1;0;0;0;0;0;0;0;0;1;1;0;0;0;96;1;149;111;50;15;11;11,5;4,8;142;5000;10;82;145;40;0;2;1
63;68;171;1;23,25501864;1;1;0;0;0;0;1;0;0;0;0;0;160;70;0;0;0;0;0;1;1;0;0;0;0;0;1;1;0;0;0;0;0;187;1,2;83;75;37;12;49;12,4;3,6;136;4100;25;65;230;35;0;2;1
56;82;175;1;26,7755102;0;0;1;0;0;1;0;0;0;0;0;0;120;78;0;0;0;0;0;1;0;0;0;0;0;0;0;0;0;0;0;0;0;112;0,9;84;111;44;9;11;15,7;4,4;143;8900;30;61;186;55;0;0;1
65;53;153;2;22,64086462;0;0;0;0;0;0;0;0;0;0;0;1;130;95;0;0;0;0;0;0;0;0;1;0;0;0;0;0;1;0;0;0;0;89;0,8;125;203;56;15;19;12,7;4,4;152;4500;37;56;173;55;0;2;0
59;75;168;1;26,57312925;0;1;1;0;1;1;1;1;0;0;0;0;110;90;0;0;0;0;0;1;1;2;0;0;0;0;0;0;1;1;0;0;0;111;1,4;118;70;40;13;32;16,6;4,9;144;10000;16;78;212;40;0;0;1
65;73;165;1;26,81359045;0;1;1;0;0;1;0;0;0;0;0;0;130;65;0;0;0;0;0;1;1;2;0;0;0;0;0;0;0;0;0;0;0;87;0,8;125;232;61;12;10;15;4,5;145;7200;26;62;191;45;0;0;0
50;88;178;1;27,77427093;0;0;0;0;0;1;0;0;0;0;0;0;110;90;0;0;0;0;0;1;0;0;0;0;0;0;1;0;1;1;0;0;0;104;1,1;94;170;35;13;40;13,1;3,9;138;6100;17;71;332;40;3;2;1
48;64;171;1;21,88707637;0;0;1;0;0;0;0;0;0;0;0;0;120;70;0;0;0;0;0;1;0;0;0;0;0;0;0;0;0;1;0;0;0;114;0,9;94;112;39;12;12;14,8;4,3;139;10000;25;70;190;45;2;2;1
66;70;168;1;24,8015873;0;0;0;0;0;0;0;0;0;0;0;0;110;74;0;0;0;0;0;1;1;2;0;0;0;0;0;0;0;0;0;0;0;92;0,9;210;144;39;15;11;13,2;4,1;141;9900;26;65;173;50;1;0;1
77;65;172;1;21,97133586;0;1;0;0;0;0;0;0;1;0;0;0;125;72;0;0;0;0;0;0;1;2;1;0;0;0;0;0;0;1;0;0;0;98;0,8;115;112;43;12;16;15,5;4;139;8500;17;73;189;40;2;2;1
65;70;168;1;24,8015873;0;0;0;0;0;0;0;0;0;0;0;0;130;75;0;0;0;0;0;1;0;0;0;0;0;0;0;0;1;0;0;0;0;102;0,9;98;114;44;15;12;14,9;4,3;144;5100;32;65;215;50;2;0;1
61;56;158;1;22,43230252;0;0;0;0;0;0;0;0;0;0;0;0;100;50;0;0;0;1;0;1;1;0;0;0;0;0;0;0;0;1;0;0;0;79;0,8;74;39;28;16;5;14,2;3,9;139;4200;30;56;214;30;0;2;1
76;73;177;1;23,30109483;1;1;1;0;1;0;1;0;0;0;0;0;130;75;0;0;0;0;1;0;1;0;0;0;0;0;0;0;1;1;0;0;0;136;2,2;92;40;24;52;66;9,4;4,4;132;7300;17;62;330;40;0;0;1
75;67;170;1;23,183391;0;1;1;0;1;0;0;0;0;0;0;0;160;70;0;0;0;0;0;1;0;0;0;0;0;0;0;0;0;0;0;0;0;92;1,3;100;168;39;22;30;13,9;3,9;142;6000;34;65;211;45;0;0;1
56;88;172;1;29,74580855;0;0;1;0;0;1;0;0;0;0;0;1;105;70;0;0;0;0;0;0;0;0;1;0;0;0;0;0;0;0;0;0;0;113;1,2;69;88;26;13;6;14;4,3;144;7100;45;50;179;55;0;0;0
60;62;152;2;26,83518006;0;1;0;0;0;1;0;0;0;0;0;1;110;80;0;0;0;0;0;1;0;0;0;0;0;0;0;1;0;1;0;0;0;97;0,9;171;168;46;14;30;12,5;4,8;143;9900;35;55;281;40;2;3;1
48;90;178;1;28,40550436;0;1;0;0;1;1;0;0;0;1;0;1;140;70;0;0;0;0;0;1;1;0;0;0;0;0;0;0;0;1;0;0;0;88;1,5;105;69;44;18;6;14,6;4,2;141;8800;27;65;244;60;0;0;1
49;90;160;2;35,15625;1;1;0;0;0;1;0;0;0;0;0;0;100;70;0;0;0;0;0;0;1;2;0;0;0;0;1;1;0;0;0;0;0;167;1,1;173;93;29;26;80;11,5;4;138;11400;30;61;300;40;2;2;1
69;57;152;2;24,67105263;0;1;0;0;0;0;0;0;0;0;0;1;140;80;0;0;0;1;0;1;1;0;0;0;0;0;0;0;0;0;1;0;0;100;1,3;117;97;40;24;51;11,8;3,7;139;6500;40;50;200;55;0;0;1
75;66;156;1;27,12031558;0;1;0;0;0;1;0;0;1;0;0;0;130;70;1;0;1;1;0;0;1;0;1;0;0;0;0;0;0;0;0;0;0;90;1,3;190;180;29;21;16;11,8;3,1;138;9200;18;75;214;50;0;3;1
60;64;168;1;22,67573696;0;0;0;0;0;0;0;0;1;0;0;0;130;70;0;0;0;0;0;0;1;0;1;0;0;0;0;0;0;0;0;0;0;84;1;90;89;55;17;12;10,8;4;139;4100;42;45;156;55;0;0;0
64;80;153;2;34,17489;1;1;1;0;0;1;0;0;1;0;0;1;160;70;0;0;0;0;0;1;0;0;0;0;0;0;0;0;0;0;0;0;0;184;0,7;170;100;39;17;18;11,9;4,3;134;4700;44;49;174;50;0;0;1
48;79;166;1;28,66889244;0;0;1;0;0;1;0;0;0;0;0;0;100;68;0;0;0;0;0;0;0;0;1;0;0;0;0;0;0;1;0;0;0;83;1;204;137;52;18;15;14,2;4,9;145;5300;41;50;170;50;0;0;1
81;74;165;2;27,18089991;0;1;0;0;0;1;0;0;0;0;0;1;140;70;0;1;0;1;0;1;1;0;0;0;0;0;0;0;0;0;1;0;0;94;1,2;122;90;43;18;23;11,9;4,5;142;6000;37;50;280;45;0;0;1
65;76;173;1;25,39343112;1;1;0;0;0;1;0;0;0;0;0;1;130;70;0;0;0;0;0;1;0;0;0;0;0;0;0;0;0;0;0;0;0;111;1,1;145;112;46;13;10;11,9;3,4;142;5200;32;62;158;55;0;2;1
51;80;170;2;27,6816609;0;1;0;0;0;1;0;0;0;0;0;0;120;70;0;0;0;0;0;0;0;0;1;0;0;0;0;0;0;0;0;0;0;87;0,9;75;114;38;6;17;14,1;3,7;143;5500;34;60;228;55;0;0;0
59;81;168;1;28,69897959;1;1;0;0;0;1;0;0;0;0;0;1;120;110;0;0;0;0;0;1;0;0;0;0;0;0;0;0;0;0;0;0;0;218;1,8;104;112;54;16;19;13,3;5,1;153;12100;15;81;170;15;4;4;1
59;75;170;1;25,95155709;1;1;0;0;0;1;0;0;0;0;0;1;150;80;0;0;0;0;0;1;0;0;0;0;0;0;0;0;0;0;0;0;0;197;1,1;125;99;33;20;11;13,3;4,4;142;5800;45;48;183;55;0;0;1
55;50;165;1;18,36547291;0;1;1;0;0;0;0;0;1;0;0;0;150;90;0;0;0;1;0;1;1;0;0;0;0;0;0;0;0;1;0;0;0;89;0,8;110;152;54;15;4;11;4,7;144;5900;38;55;242;45;1;4;1
66;92;177;1;29,36576335;0;1;1;0;0;1;0;0;1;0;0;0;140;70;0;0;0;0;0;1;0;0;0;0;0;0;0;0;0;1;0;0;0;120;1,1;115;110;30;17;15;14,6;3,9;148;4500;27;63;170;45;0;2;1
49;80;160;2;31,25;1;1;0;0;0;1;0;0;0;0;0;1;140;90;0;0;0;0;0;1;1;2;0;0;0;0;0;0;0;1;0;0;0;320;0,7;259;43;33;13;22;11,5;4,3;139;7700;34;58;246;45;0;0;1
56;75;168;1;26,57312925;0;0;0;1;0;1;0;0;0;0;0;0;130;90;0;0;0;1;0;1;1;0;0;0;0;0;0;0;0;0;0;0;0;87;1,2;447;119;39;18;6;14;4,3;143;5900;40;50;200;40;0;4;1
63;73;174;1;24,11150746;0;1;1;0;1;0;0;0;0;0;0;0;160;80;0;0;0;0;0;0;0;0;1;0;0;0;0;0;0;1;0;0;0;84;1;301;142;42;24;13;13,1;4,2;145;9500;27;60;194;50;2;2;1
74;61;160;2;23,828125;1;1;0;0;0;0;0;0;0;0;0;1;160;70;0;0;0;1;0;0;0;0;1;0;0;0;0;0;0;0;1;0;0;156;1,3;116;60;37;16;37;11;4,2;143;9100;16;82;226;55;0;2;1
70;89;179;1;27,77691083;0;1;0;0;0;1;0;0;0;0;0;0;150;70;0;0;0;1;0;0;1;0;1;0;0;0;0;0;0;0;1;0;0;100;1,2;162;90;33;24;31;13;4,9;144;4900;39;47;173;50;2;2;1
76;64;159;1;25,31545429;0;1;0;1;0;1;1;0;0;0;0;0;115;70;0;0;0;0;0;0;0;0;1;0;0;0;0;0;1;1;0;0;0;119;2;190;92;29;33;14;12,6;4,1;142;5100;39;55;226;55;0;2;1
36;60;165;2;22,03856749;1;0;1;0;0;0;0;0;0;0;0;0;125;70;0;0;0;0;0;0;1;0;0;0;0;0;0;0;0;1;0;0;0;400;0,9;90;69;42;15;21;11,1;4,3;143;6000;30;63;172;45;2;0;1
52;55;169;1;19,25702882;0;1;1;0;0;0;0;0;0;0;0;0;120;80;0;0;0;0;0;1;0;0;0;0;0;0;0;0;0;0;0;0;0;71;0,8;163;90;41;10;7;14,7;3,7;142;7100;33;60;211;55;1;0;1
72;54;148;1;24,65303141;0;0;0;0;0;0;0;0;0;0;0;0;120;70;0;0;1;0;0;1;0;0;0;0;0;0;1;1;0;0;0;0;0;95;0,9;67;83;46;20;39;15;4,6;146;8600;33;66;247;35;0;2;1
79;63;160;1;24,609375;0;0;0;0;0;0;0;0;0;0;0;0;130;60;0;0;0;0;0;1;0;0;0;0;0;0;0;0;0;1;0;0;0;75;1,1;145;107;44;14;16;14,8;4,8;145;7200;36;52;240;40;1;2;1
62;97;167;1;34,78073793;0;1;1;0;0;1;0;0;0;0;0;0;180;80;0;0;0;0;0;0;0;0;1;0;0;0;0;0;0;0;0;0;2;84;1,2;77;56;37;20;4;11,6;3,9;138;7300;25;70;195;35;2;0;1
55;60;165;1;22,03856749;0;0;0;0;0;0;0;0;0;0;0;1;120;68;0;0;0;1;1;0;1;2;0;0;0;0;0;0;0;0;0;0;0;77;1,1;90;66;45;17;9;13,6;3,9;140;9000;23;74;207;35;0;3;0
45;75;176;1;24,21229339;0;0;1;0;0;0;0;0;0;0;0;1;130;70;0;0;0;0;0;0;0;0;1;0;0;0;0;0;0;1;0;0;0;77;0,9;159;80;42;14;3;16,1;3,8;143;6800;43;46;223;40;0;2;0
55;84;187;1;24,02127599;1;0;0;0;0;0;0;0;0;0;0;0;130;80;0;0;0;0;0;1;0;0;0;0;0;0;0;0;0;0;0;0;3;174;0,8;128;72;37;16;37;13,1;4;136;7100;34;60;190;40;2;2;1
49;78;170;1;26,98961938;0;0;1;0;0;1;0;0;0;0;0;0;130;74;0;0;0;0;0;1;0;0;0;0;0;0;0;1;0;1;0;0;0;96;0,9;142;130;60;14;20;14,3;4,7;136;11300;22;68;172;50;2;2;1
48;90;170;1;31,14186851;0;0;1;0;0;1;0;0;0;0;0;0;120;70;0;0;0;0;0;1;0;0;0;0;0;0;0;0;0;0;0;0;0;80;0,8;80;75;40;12;2;15,3;4,6;137;10000;30;67;177;55;0;0;0
50;73;160;2;28,515625;1;1;0;0;1;1;0;0;0;0;0;1;120;80;0;0;0;0;0;1;0;0;0;0;0;0;0;0;0;0;0;0;0;127;0,6;300;213;54;10;9;12,6;3,7;139;7500;33;61;200;55;0;0;1
60;83;165;1;30,48668503;0;0;0;0;1;1;0;0;0;0;0;1;130;70;0;0;0;1;0;1;0;0;0;0;0;0;0;0;1;0;0;0;0;91;1;371;60;48;12;8;14,7;4,4;140;7700;32;55;194;55;0;0;1
50;61;158;2;24,43518667;0;1;0;0;0;0;0;0;0;1;0;0;120;70;0;0;0;0;0;0;0;0;1;0;0;0;0;0;0;0;0;0;0;94;1,1;130;70;40;22;19;12,3;4,1;142;6300;23;67;213;50;0;2;0
43;85;188;1;24,04934359;1;0;0;0;0;0;0;0;0;0;0;0;130;70;0;0;0;0;0;0;0;0;1;0;0;0;0;0;0;0;0;0;0;168;1,1;124;106;53;12;4;14,9;4,2;147;6900;31;54;234;55;0;0;0
51;66;176;1;21,30681818;1;1;0;0;0;0;0;0;0;0;0;1;150;84;0;0;0;0;0;1;0;0;0;0;0;0;0;0;0;0;0;1;0;200;1;96;87;36;14;8;13,5;4,5;144;10000;8;86;145;45;0;2;1
80;60;174;1;19,81767737;1;1;0;0;0;0;0;0;0;0;0;1;140;80;0;0;0;0;0;1;1;0;0;0;0;0;0;0;0;0;0;0;0;139;1;79;60;49;19;17;9,9;5,1;136;11300;12;76;170;40;0;2;1
47;75;165;2;27,54820937;0;0;0;0;0;1;0;0;1;0;0;0;120;90;0;0;0;0;0;1;0;0;0;0;0;0;0;0;0;0;0;0;0;84;1,1;97;83;24;13;15;12,8;3,8;137;9000;23;67;201;45;3;2;1
46;70;150;2;31,11111111;1;1;0;0;0;1;0;0;0;0;0;1;140;90;0;0;0;0;0;1;0;0;0;0;0;0;0;0;0;0;0;0;0;144;0,9;381;72;49;24;27;12,9;4,9;137;6600;31;49;200;50;2;0;1
53;63;155;2;26,2226847;0;1;0;0;0;1;0;0;0;0;0;1;120;70;0;0;0;0;0;0;1;0;0;1;0;0;0;0;1;1;0;0;0;79;0,6;85;110;40;11;23;11;4;140;4200;23;67;182;50;0;0;1
52;64;150;2;28,44444444;0;0;0;0;0;1;0;0;0;0;0;1;90;70;0;0;0;0;0;0;1;0;1;0;0;0;0;0;0;0;0;0;2;92;0,9;90;88;52;13;15;13,4;4;142;5300;43;50;175;55;0;2;0
44;90;185;1;26,29656684;0;0;1;0;1;1;0;0;0;0;0;0;120;88;0;0;0;0;0;1;0;0;0;0;0;0;0;1;0;1;0;0;0;95;1,1;144;142;40;16;69;16;4;136;17000;15;75;250;35;0;0;1
71;55;160;2;21,484375;1;1;0;0;0;0;0;0;0;0;0;0;120;80;0;0;0;0;0;0;1;0;0;1;0;0;0;0;0;0;0;0;0;130;1,3;219;91;39;21;46;10,5;4,5;138;11000;27;68;198;55;0;0;1
63;84;175;1;27,42857143;1;1;0;0;0;1;0;0;0;0;0;0;160;70;0;0;0;0;0;1;0;0;0;0;0;0;1;1;0;1;0;0;0;183;1,5;204;136;38;38;4;12,3;4,8;134;12200;15;77;241;40;3;2;1
45;82;175;1;26,7755102;0;0;1;0;0;1;0;0;0;0;0;0;110;70;0;0;0;0;0;1;0;0;0;0;0;0;1;0;0;1;0;0;0;96;1;1050;76;44;19;2;17,6;4;140;6800;30;64;214;40;0;2;1
70;72;165;1;26,44628099;1;1;0;0;0;1;0;0;0;0;0;1;135;70;0;0;0;0;0;0;0;0;1;0;0;0;0;0;0;1;0;0;0;136;1,5;103;94;32;28;6;15,4;4,3;138;6900;28;70;199;50;0;0;1
71;60;157;2;24,34175829;0;1;0;0;1;0;0;0;0;0;0;1;130;60;0;0;0;0;0;1;0;0;0;0;0;0;0;0;1;1;0;0;0;82;1,2;130;124;42;33;41;13,6;5,4;138;15400;7;85;259;55;0;0;1
42;91;174;1;30,05681068;0;0;1;0;1;1;0;0;0;0;0;0;120;60;0;0;0;0;0;1;1;2;0;0;0;0;0;0;0;0;0;0;2;97;1,1;122;52;29;17;3;14,3;4,2;142;7300;44;44;175;55;0;0;0
62;80;156;2;32,8731098;0;1;0;0;0;1;0;0;0;0;0;1;140;80;0;0;0;0;0;0;1;2;1;0;0;0;0;0;0;1;0;0;0;119;1,1;174;129;46;16;6;14,7;3,5;142;6300;37;57;174;55;0;2;0
65;78;153;2;33,32051775;0;1;0;0;0;1;0;0;0;0;0;0;120;90;1;0;0;0;0;1;1;2;0;0;0;0;0;0;1;0;0;0;0;103;0,9;89;82;40;31;9;13;4,2;139;4100;50;44;161;55;0;2;1
63;64;160;2;25;1;1;0;0;0;1;0;0;0;0;0;1;140;70;0;0;0;0;0;0;1;2;1;0;0;0;0;0;0;0;0;0;0;156;1,2;116;92;33;18;9;12,4;4,4;142;6800;32;58;240;55;0;2;0
60;82;170;1;28,37370242;0;0;0;0;0;1;0;0;0;0;0;0;120;70;0;0;0;0;0;1;1;2;0;0;0;0;1;0;0;1;0;0;0;95;1,1;62;42;39;20;2;12,5;4,4;136;3700;34;53;172;40;0;0;1
58;86;168;1;30,47052154;0;0;1;0;0;1;0;0;0;0;0;0;120;70;0;0;0;1;0;1;0;2;0;0;0;0;0;0;0;0;0;0;0;100;1,3;127;71;38;17;40;12,8;4,1;145;9100;20;68;173;50;1;0;1
67;67;155;2;27,88761707;1;1;0;0;0;1;0;0;0;0;0;1;140;80;0;0;0;0;0;0;1;2;1;0;0;0;1;0;0;0;0;0;0;194;1;129;110;18;17;51;12,6;4,7;136;7200;25;65;177;40;0;2;1
57;103;184;1;30,42296786;0;0;0;0;0;1;0;0;0;0;0;1;130;76;0;0;0;0;0;0;0;0;0;1;0;0;0;0;0;0;0;0;0;101;1,1;140;112;44;8;12;14,3;4,6;139;8100;33;62;190;45;1;0;1
62;67;177;1;21,38593635;1;0;0;0;0;0;0;0;0;0;0;1;110;70;0;0;0;0;0;0;1;0;1;0;0;0;0;0;0;0;0;0;0;70;1,2;190;150;44;23;12;13,3;3,8;146;9200;40;54;145;55;2;0;1
70;55;170;1;19,03114187;0;1;0;0;0;0;0;0;0;0;0;0;140;70;0;0;0;0;0;1;0;0;0;0;0;0;0;0;0;0;0;0;0;78;0,6;140;94;39;13;46;13,8;4,8;137;5700;17;80;275;40;2;2;1
63;78;169;1;27,30996814;1;0;0;0;0;1;0;0;0;0;0;0;130;68;0;0;0;0;0;1;1;2;0;0;0;0;0;0;0;0;0;1;0;112;1;93;75;28;24;1;17;4;135;7200;27;59;210;45;0;2;1
72;75;153;2;32,03895937;0;1;0;0;0;1;0;0;0;0;0;0;190;80;0;0;0;0;0;1;0;0;0;0;0;0;0;0;1;1;0;0;0;160;1,4;142;180;30;15;18;9;4;143;8600;31;65;181;45;0;2;1
68;48;154;1;20,23950076;0;1;0;0;0;0;0;0;0;0;0;0;120;70;0;0;0;0;0;1;1;0;0;0;0;0;0;0;1;0;0;0;0;90;1;74;85;49;17;29;11;4,2;134;6900;20;80;267;50;1;0;1
72;68;175;1;22,20408163;0;1;0;0;0;0;0;0;0;0;0;0;140;100;1;0;1;1;0;0;1;0;1;0;0;0;0;0;0;0;0;0;0;78;1,6;50;30;52;39;32;11;4,2;140;7200;13;78;160;20;0;4;1
74;88;168;1;31,17913832;0;1;0;0;0;1;0;0;0;0;0;1;140;80;1;1;0;0;0;1;1;2;0;0;0;0;0;0;0;0;1;0;0;117;1,2;146;103;40;21;33;14,3;5,1;141;10400;18;72;197;40;0;0;1
70;64;150;2;28,44444444;0;1;0;0;1;1;0;0;0;0;0;1;100;68;0;0;0;0;0;0;1;2;1;0;0;0;0;0;0;0;0;0;0;102;1,2;198;121;36;22;15;12,8;4,3;138;4200;30;70;174;50;1;2;1
50;81;152;2;35,05886427;0;1;0;0;0;1;0;0;0;0;0;0;160;80;0;0;0;0;0;0;1;0;1;0;0;0;0;0;0;0;0;0;2;131;0,8;75;100;28;25;15;12,5;4,9;144;6200;35;58;200;55;0;2;0
42;70;160;1;27,34375;0;1;0;0;0;1;0;0;0;0;0;1;132;80;0;0;0;0;0;1;0;0;0;0;0;0;0;0;0;1;0;0;0;79;1;245;115;25;11;2;16,5;3,8;144;7800;42;51;209;50;1;2;1
50;50;160;2;19,53125;0;0;0;0;0;0;0;0;0;0;0;0;100;70;0;0;0;0;0;0;0;0;1;0;0;0;0;0;1;0;0;0;0;92;1;123;64;38;18;46;11,5;3,5;135;8700;26;65;263;55;0;0;0
44;60;154;2;25,29937595;0;0;0;0;1;1;0;0;0;0;0;0;130;80;0;0;0;1;0;0;1;2;1;0;0;0;0;0;0;0;0;0;0;111;1;104;142;47;10;3;10,5;4,2;142;8300;26;66;242;50;0;2;0
43;108;170;2;37,37024221;1;0;0;0;0;1;0;0;0;0;0;1;110;70;0;0;0;0;0;0;0;0;1;0;0;0;0;0;0;0;0;0;0;210;0,9;128;122;48;15;23;12,3;5,2;140;7700;30;60;227;55;0;0;0
50;73;160;2;28,515625;0;1;0;0;1;1;0;0;0;0;0;1;180;100;0;0;0;0;0;1;0;0;0;0;0;0;0;0;1;1;0;0;0;127;0,7;300;213;54;10;9;12,6;3,7;139;7500;33;60;200;55;0;0;1
62;74;147;2;34,24499051;0;1;0;0;0;1;0;0;0;0;0;1;160;70;0;0;0;0;0;1;0;0;0;0;0;0;0;0;0;0;0;0;0;106;0,9;90;60;54;8;12;13,6;4,1;143;7400;23;70;223;50;0;0;1
68;60;150;2;26,66666667;1;1;0;0;0;1;0;0;1;0;0;0;130;80;0;0;0;0;0;1;0;0;0;0;0;0;0;0;0;0;0;1;0;360;1,3;235;70;30;52;55;11;3,9;150;8600;28;70;190;55;0;2;1
63;88;175;1;28,73469388;1;1;1;0;0;1;0;0;0;0;0;0;140;80;0;0;0;0;0;1;0;0;0;0;0;0;0;0;0;1;0;1;0;142;1,2;195;77;25;20;30;11;4,5;140;4700;29;61;131;20;3;0;1
53;108;178;1;34,08660523;0;0;1;0;0;1;0;0;0;0;0;0;120;80;0;0;0;0;0;1;0;0;0;0;0;0;0;0;0;0;0;0;0;108;1,2;81;97;37;14;6;14,6;4,2;139;4700;40;50;129;55;0;0;0
48;87;169;1;30,46111831;0;1;0;0;0;1;0;0;0;0;0;0;140;70;0;0;0;0;0;0;0;0;1;0;0;0;0;1;0;0;0;0;0;96;1,1;148;115;50;12;12;13,9;4,7;141;7500;35;51;214;45;0;2;1
74;72;181;1;21,97735112;0;1;1;0;0;0;0;0;0;0;0;0;150;70;0;0;0;0;0;1;1;3;0;0;0;0;0;0;1;1;0;0;0;72;0,9;145;121;48;15;25;13,6;3,4;142;5400;31;58;308;45;0;2;1
66;70;162;1;26,6727633;0;1;0;0;0;1;0;0;0;0;0;0;130;70;0;0;0;0;0;1;1;2;0;0;0;0;0;0;0;0;0;0;0;94;1,4;127;146;24;32;6;14,4;4,1;141;6400;52;45;261;55;0;2;1
49;89;185;1;26,00438276;0;1;1;0;0;1;0;0;0;0;0;1;130;70;0;0;0;0;0;0;1;2;1;0;0;0;0;0;0;0;0;0;0;90;1,2;136;136;38;13;13;14,3;4,4;144;11000;42;52;171;55;0;0;0
62;100;176;1;32,28305785;0;0;0;0;0;1;0;0;0;0;0;0;120;80;0;0;0;0;0;0;1;0;1;0;0;0;0;0;0;0;0;0;0;90;1,1;95;112;45;14;31;11,6;4,1;142;6600;29;69;200;45;0;0;1
65;65;160;2;25,390625;1;0;0;0;0;1;0;0;1;0;0;1;120;70;0;0;0;0;0;1;1;2;0;0;0;0;0;0;0;0;0;0;2;260;1,2;161;64;46;26;34;9,9;4,5;134;14700;40;49;354;30;0;2;1
76;85;179;1;26,52851035;0;1;0;0;0;1;0;0;0;0;0;0;130;80;0;0;0;0;0;0;1;2;0;0;0;0;0;0;0;0;0;0;0;78;0,8;88;88;39;16;16;14,2;3,7;146;16000;11;83;170;50;0;2;1
66;65;140;2;33,16326531;0;1;0;0;0;1;0;0;0;0;0;1;115;80;0;0;0;0;0;1;1;0;0;0;0;0;0;0;0;0;0;0;0;88;0,9;152;101;42;13;20;13;4,3;144;9100;46;49;269;55;0;2;0
58;102;175;1;33,30612245;0;0;1;0;0;1;0;0;0;0;0;0;110;60;0;0;0;0;0;1;0;0;0;0;0;0;0;1;0;0;0;0;0;75;0,5;130;99;51;15;4;14,2;4,1;140;6300;26;67;309;40;2;2;1
50;75;176;1;24,21229339;0;1;0;0;0;0;0;0;0;0;0;0;125;75;0;0;0;0;0;0;0;0;0;1;0;0;0;0;0;1;0;0;0;90;1,2;140;142;43;15;12;14,1;4,9;140;5500;47;48;214;55;2;2;0
79;57;171;1;19,49317739;0;0;0;0;0;0;0;0;0;0;0;0;110;70;0;0;0;0;0;0;1;0;0;0;0;0;0;0;0;0;0;0;3;100;1,3;85;58;36;30;3;13,3;4,9;138;5700;22;68;187;15;0;4;0
70;71;171;1;24,28097534;0;1;0;0;0;0;0;0;0;0;0;0;140;80;0;0;0;0;0;1;0;0;0;0;0;0;0;0;0;0;1;0;0;87;1,2;102;68;34;27;16;11,8;3,9;141;8600;39;51;225;45;0;2;1
50;83;168;1;29,40759637;0;1;0;0;0;1;0;0;0;0;0;0;130;70;0;0;0;0;0;0;0;0;1;0;0;0;0;0;1;1;0;0;0;109;1,2;80;66;36;17;13;13,7;3,7;142;7600;36;55;240;50;1;0;1
62;82;161;1;31,634582;0;0;0;0;0;1;0;0;0;0;0;0;130;70;0;0;0;0;0;1;1;2;0;0;0;0;0;0;0;0;0;0;2;102;1,3;149;124;34;17;10;15,2;4,5;144;7700;28;64;208;30;0;2;1
51;68;148;2;31,04455807;0;0;0;0;0;1;0;0;0;0;0;0;130;80;0;0;0;1;0;0;0;0;1;0;0;0;0;0;1;1;0;0;0;119;0,9;132;111;44;15;20;13,4;4,4;143;7500;35;54;188;35;1;4;0
42;74;172;1;25,01352082;0;1;1;0;1;1;0;0;0;0;0;0;140;70;0;0;0;0;0;1;0;0;0;0;0;0;0;0;0;1;0;0;0;90;0,9;80;65;27;10;42;11,8;4,3;138;6500;40;60;145;45;2;4;1
54;67;164;1;24,9107674;0;0;0;0;0;0;0;0;0;0;0;0;110;70;0;0;0;0;0;0;0;0;1;0;0;0;0;0;0;0;0;0;0;94;1;37;18;22;22;4;13,8;4,6;146;6500;38;52;186;55;0;2;0
64;74;153;2;31,61177325;1;0;0;0;0;1;0;0;0;0;0;1;110;70;0;0;0;0;0;0;1;0;1;0;0;0;0;0;0;0;0;0;0;300;1,1;150;49;28;19;29;11;4,4;140;7700;32;54;220;50;0;2;0
46;73;160;2;28,515625;0;0;0;0;1;1;0;0;0;0;0;1;130;80;0;0;0;1;1;0;0;0;1;0;0;0;0;0;0;0;0;0;0;94;1,1;75;100;28;15;14;12;4,3;140;5300;28;71;188;50;0;2;0
62;63;160;2;24,609375;1;1;0;0;0;0;0;0;0;0;0;0;140;80;0;0;0;0;0;1;0;0;0;0;0;0;0;0;1;0;0;0;0;161;0,8;52;47;61;12;17;11,9;5;148;4600;38;55;200;50;0;2;1
43;82;169;1;28,71047932;0;0;1;0;0;1;0;0;0;0;0;0;110;70;0;0;0;0;0;0;1;0;1;0;0;0;0;0;0;0;0;0;0;142;1,4;216;158;46;22;10;13;3,4;140;8100;34;62;211;55;0;2;0
85;73;165;1;26,81359045;0;1;0;0;1;1;0;0;0;0;0;0;150;80;0;0;0;0;0;0;0;0;0;0;0;0;0;0;0;0;0;0;2;89;1,6;100;80;39;23;23;11;4,1;132;10300;10;84;256;45;2;2;1
64;64;152;2;27,70083102;0;1;0;0;0;1;0;0;0;0;0;1;130;80;0;1;0;0;0;1;1;2;0;0;0;0;0;0;0;0;1;0;0;91;0,8;190;113;42;15;11;13,6;4,4;142;6700;31;64;25;45;0;2;1
47;82;173;1;27,39817568;0;1;1;0;0;1;0;0;0;0;0;1;140;80;0;0;0;0;0;0;0;0;1;0;0;0;0;0;0;0;0;0;0;104;1,2;76;77;26;21;2;15;4,1;142;6000;28;66;208;40;0;2;0
57;90;168;2;31,8877551;0;1;0;0;1;1;0;0;0;0;0;1;130;70;0;0;0;0;0;1;1;2;0;0;0;0;0;0;1;0;0;0;0;114;0,9;90;60;44;18;16;13,4;3,2;140;9800;21;70;184;50;0;2;1
44;79;165;1;29,0174472;1;1;0;0;0;1;0;0;0;0;0;0;160;90;0;0;0;0;0;0;1;2;1;0;0;0;0;0;0;0;0;0;2;96;0,9;120;110;44;30;15;14,4;3,9;132;5500;40;60;193;20;0;4;0
71;78;164;1;29,00059488;0;1;0;0;0;1;0;0;0;0;0;0;130;70;0;0;0;0;0;1;0;2;0;0;0;0;0;0;0;0;0;0;0;84;1,7;112;110;45;30;5;16;4,6;141;4100;32;62;173;45;3;2;1
41;86;155;2;35,79604579;1;1;0;0;0;1;0;0;0;1;0;0;120;60;0;0;0;0;0;0;1;2;1;0;0;0;0;0;0;0;0;0;0;90;1,2;152;131;35;12;41;13,3;4,1;142;9300;43;50;249;50;0;0;0
50;89;159;2;35,20430363;0;0;0;0;1;1;0;0;0;0;0;1;110;65;0;0;0;0;0;1;1;2;0;0;0;0;0;0;0;0;0;0;0;90;0,9;95;140;35;18;14;12,9;4,3;143;7900;30;65;260;55;0;0;0
55;65;167;1;23,30668005;0;1;1;0;0;0;0;0;0;0;0;0;140;90;0;0;0;0;0;0;1;2;0;0;0;0;0;0;0;1;0;0;0;96;1,1;112;70;33;15;26;13;3,9;142;8200;40;55;192;55;0;2;1
66;83;158;2;33,24787694;1;1;0;0;0;1;0;0;0;0;0;1;130;70;0;0;0;0;0;1;0;0;0;0;0;0;0;0;0;1;0;0;0;153;1,4;106;36;34;14;20;12;3,4;142;7700;33;66;170;55;0;2;1
62;87;167;1;31,19509484;1;1;0;0;0;1;0;0;0;0;0;1;130;80;0;0;0;0;0;0;1;2;0;0;0;0;0;0;0;0;1;0;0;106;1,1;236;69;18;19;9;14;4,3;142;8300;40;54;257;45;1;2;1
44;54;145;2;25,68370987;1;1;0;0;1;1;0;0;0;0;0;1;130;70;1;0;0;0;0;1;1;2;0;0;0;0;0;0;0;0;0;1;0;144;0,7;160;172;51;15;27;11;4,1;135;9300;34;50;220;55;0;2;1
60;57;174;1;18,8267935;1;1;0;0;0;0;0;0;0;0;0;0;140;80;0;0;0;1;0;1;0;0;0;0;0;0;0;0;0;1;0;0;0;234;1,1;150;110;40;19;8;14,2;4;140;7000;36;60;184;55;0;2;1
46;74;177;1;23,62028791;0;0;0;0;0;0;0;0;0;0;0;0;110;70;0;0;0;0;0;0;0;0;1;0;0;0;0;0;0;0;0;0;0;77;0,9;304;88;43;10;8;13,6;4,6;144;8500;55;40;273;55;0;0;0
69;60;165;2;22,03856749;1;0;0;0;1;0;0;0;0;0;0;1;120;86;0;0;0;0;0;0;1;2;0;0;0;0;0;0;0;0;0;1;0;171;0,7;106;116;50;17;29;9,4;3,8;135;9300;16;72;292;40;0;2;1
38;66;166;2;23,95122659;0;0;0;0;1;0;0;0;0;0;0;0;110;70;0;0;0;0;0;0;1;3;1;0;0;0;0;0;0;0;0;0;0;80;0,6;41;119;82;10;28;10;3,7;143;5500;39;53;236;55;0;0;0
73;76;170;1;26,29757785;0;1;1;0;0;1;0;0;0;0;0;0;130;80;1;0;0;0;0;1;0;0;0;0;0;0;0;0;0;0;0;0;0;100;1;62;70;44;22;16;15;4;143;5800;44;52;166;55;0;2;0
66;62;185;1;18,11541271;0;0;0;0;0;0;0;0;0;0;0;1;120;70;0;0;0;0;0;1;1;1;0;0;0;0;0;0;0;0;0;0;0;76;0,9;43;117;44;15;37;12,4;4,3;138;7100;17;76;181;45;0;2;0
55;70;161;2;27,00513097;1;1;0;0;0;1;0;0;0;0;0;1;150;80;0;0;0;0;0;1;0;0;0;0;0;0;1;0;0;0;0;1;0;153;1,2;115;57;31;21;30;13;4,9;142;10000;31;53;220;50;0;0;1
64;95;165;1;34,89439853;0;0;0;0;0;1;0;1;0;0;0;0;110;70;0;0;0;0;0;0;1;0;1;0;0;0;0;0;1;1;0;0;0;93;1,4;108;72;29;22;11;15,8;4,2;140;8800;26;68;200;30;0;2;0
50;98;175;1;32;0;1;0;0;0;1;0;0;0;0;0;0;150;70;0;0;0;0;0;0;1;2;0;0;0;0;0;0;0;0;1;0;0;113;1,3;86;90;44;11;13;13,6;3;139;9000;27;61;220;50;0;2;0
53;83;178;1;26,19618735;0;1;0;0;0;1;0;0;0;0;0;0;140;70;0;0;0;0;0;0;0;0;1;0;0;0;0;0;0;0;0;0;0;164;1,2;131;108;36;24;3;13,5;4,3;138;9800;43;55;172;55;0;0;0
50;65;170;1;22,49134948;0;0;1;0;1;0;0;0;0;0;0;1;130;70;0;0;0;0;0;0;0;0;1;0;0;0;0;0;0;0;0;0;0;102;1,4;162;110;31;15;5;14,2;4,1;138;7400;53;44;264;55;0;0;1
68;95;180;1;29,32098765;0;1;0;1;0;1;0;0;0;0;0;1;110;70;0;0;0;0;0;1;0;3;0;0;0;0;0;0;0;0;1;0;0;111;1,9;78;55;30;40;42;11;4,4;143;8800;13;77;118;55;0;2;1
57;94;161;2;36,26403302;0;1;0;0;0;1;0;0;0;0;0;0;170;70;0;0;0;0;0;0;1;0;0;0;0;0;0;0;0;0;1;0;0;119;1,6;222;167;27;32;34;11,4;4;141;6400;34;61;188;45;0;2;1
62;63;161;1;24,30461788;1;1;0;0;0;0;0;0;0;0;0;0;150;70;0;0;0;0;0;0;1;0;0;0;0;0;0;0;0;0;0;0;0;180;1;250;125;40;22;29;14;3,9;144;9600;11;77;187;50;1;0;1
64;59;160;1;23,046875;0;1;1;0;1;0;0;0;0;0;0;0;130;70;0;0;0;0;0;0;0;0;1;0;0;0;0;0;1;1;0;0;0;103;1,2;77;76;39;17;11;13,5;3,9;138;6900;44;52;210;50;0;0;1
70;67;166;1;24,31412397;0;1;0;0;0;0;0;0;0;0;0;0;160;70;0;0;0;0;0;1;1;0;0;0;0;0;0;0;0;0;1;0;0;103;1;88;100;40;17;14;14;4,4;140;6200;30;60;220;45;1;2;1
48;83;165;1;30,48668503;0;1;1;0;0;1;0;0;0;0;0;0;130;70;0;0;0;0;0;1;1;0;0;0;0;0;0;0;1;1;0;0;0;120;1;470;81;38;15;6;15,9;4,1;139;5800;46;48;195;55;0;2;1
77;84;172;1;28,39372634;0;1;0;1;0;1;0;0;0;0;0;0;120;70;0;0;0;0;0;1;0;0;0;0;0;0;0;0;0;1;0;0;0;94;1,2;64;66;26;14;16;9;4,2;139;4800;32;60;197;50;0;0;1
54;70;170;2;24,22145329;0;0;0;0;0;0;0;0;0;0;0;1;120;80;0;0;0;0;0;1;0;2;0;0;0;0;1;0;0;0;0;0;0;122;0,9;100;88;27;11;27;12;4;138;6900;37;58;218;55;0;0;1
56;62;155;2;25,80645161;0;1;0;0;1;1;0;0;0;0;0;1;130;75;0;0;0;0;0;1;0;2;0;0;0;0;0;0;0;0;0;0;0;88;1,3;100;180;64;18;18;13,3;4,1;140;4900;40;51;218;55;0;2;1
54;67;157;2;27,18163009;1;0;0;0;0;1;0;0;0;0;0;0;120;70;0;0;0;0;0;1;0;0;0;0;0;0;0;0;0;0;0;0;0;258;0,8;122;86;37;22;46;14;4,7;137;7100;49;47;214;55;1;2;1
75;74;174;1;24,44180209;0;1;0;0;0;0;0;0;0;0;0;1;140;70;0;0;0;0;0;1;0;0;0;0;0;0;0;0;1;1;0;0;0;79;1,4;152;79;37;17;21;12;4,3;137;5100;38;60;166;35;3;0;1
64;78;177;1;24,89706023;1;1;0;0;0;0;0;1;0;0;0;1;130;72;0;1;0;0;0;1;0;0;0;0;0;0;0;0;0;0;0;0;0;219;1,1;309;78;34;20;31;13,1;4,3;138;10000;29;60;233;55;1;2;1
48;97;154;2;40,90065778;1;0;0;0;0;1;0;0;0;0;0;0;120;75;0;0;0;0;0;1;1;2;0;0;0;0;0;0;0;0;0;0;0;212;0,8;105;50;27;10;37;13;4,9;140;9000;33;59;217;45;2;2;1
62;69;166;2;25,03991871;0;0;0;0;1;1;0;0;0;0;0;1;130;80;0;0;0;0;0;0;1;0;1;0;0;0;0;0;0;0;0;0;0;105;1;111;116;67;14;15;11,9;3,7;140;9500;34;62;184;55;0;0;0
56;88;181;1;26,86120692;0;0;0;0;0;1;0;0;0;0;0;0;110;70;0;0;0;0;0;0;0;0;1;0;0;0;0;0;0;0;0;0;0;80;1,1;281;190;47;16;32;13,5;3,8;139;6000;34;58;149;55;0;0;0
56;80;178;1;25,2493372;0;0;1;0;1;1;0;0;0;0;0;0;130;80;0;0;0;0;0;1;1;2;0;0;0;0;0;0;0;1;0;0;0;90;1,2;210;170;46;15;3;15,4;4,4;156;6400;36;58;188;45;3;0;1
47;66;170;1;22,83737024;1;1;0;0;1;0;0;0;0;0;0;1;120;70;0;0;0;0;0;0;1;2;1;0;0;0;0;0;1;1;0;0;0;109;1,4;112;66;30;14;14;12,1;4,2;136;9500;40;60;197;45;1;2;1
47;72;169;1;25,20920136;0;0;1;0;0;1;0;0;0;0;0;0;100;80;0;0;0;0;0;1;1;0;0;0;0;0;0;0;1;0;0;0;0;84;1;114;78;39;18;15;12,2;4,4;138;11500;26;70;278;50;0;2;1
55;71;155;1;29,55254943;0;0;0;0;1;1;0;0;0;0;0;0;120;70;0;0;0;0;0;0;0;0;1;0;0;0;0;0;0;0;0;0;0;90;1,3;84;75;50;22;18;13,3;3,4;138;4700;41;46;169;50;0;0;1
52;73;170;1;25,25951557;0;0;1;0;0;1;0;0;0;0;0;0;130;74;0;0;0;0;0;1;1;0;0;0;0;0;0;0;1;1;0;0;0;84;1;210;90;30;12;5;13,3;4,5;139;7100;38;52;159;30;2;0;1
67;64;174;1;21,13885586;1;1;0;0;0;0;0;0;0;0;0;0;130;80;1;0;0;0;0;1;0;0;0;0;0;0;0;0;1;1;0;0;0;94;1,4;90;146;42;12;14;13,1;4,9;144;11000;19;80;214;45;1;2;1
63;72;165;1;26,44628099;0;1;0;0;0;1;0;0;0;0;0;0;140;80;0;0;0;0;0;0;0;0;1;0;0;0;0;0;0;1;0;0;0;85;1,2;99;89;39;16;36;12,2;4,2;140;5700;39;51;180;55;0;0;1
55;91;179;1;28,40111108;0;0;0;0;1;1;0;0;0;1;0;0;120;80;0;0;0;0;0;1;0;0;0;0;0;0;0;0;0;1;0;0;0;94;1,3;94;79;36;16;6;15,3;3,8;142;6800;29;62;214;45;0;2;1
72;63;155;2;26,2226847;0;1;0;0;0;1;0;0;0;0;0;0;110;70;0;0;0;0;0;1;0;0;0;0;0;0;0;0;0;0;0;0;0;89;1;90;110;46;16;20;11,9;4,2;140;6000;34;60;295;50;0;2;1
66;62;154;2;26,14268848;1;0;0;0;1;1;0;0;0;0;0;0;110;80;0;0;0;0;0;0;1;0;1;0;0;0;0;0;0;0;0;1;0;144;1;174;95;44;13;15;11,5;4,3;140;5200;36;60;170;50;0;0;1
62;58;162;1;22,10028959;0;0;1;0;0;0;0;0;0;0;0;0;110;80;0;0;0;0;0;0;0;0;1;0;0;0;0;0;1;1;0;0;0;90;1,3;177;173;59;28;8;14,8;3,2;142;8900;25;66;192;45;0;4;1
62;105;180;2;32,40740741;1;1;1;0;0;1;0;0;0;0;0;1;140;80;0;0;0;0;0;1;0;0;0;0;0;0;0;0;1;1;0;0;0;377;1,6;399;106;38;36;23;13,1;4,3;138;11000;32;60;189;40;0;2;1
51;80;150;2;35,55555556;0;1;0;0;0;1;0;0;0;1;0;0;140;70;0;0;0;0;0;0;1;0;1;0;0;0;0;0;0;0;1;0;0;90;0,8;90;110;60;12;9;10;4,1;141;6600;28;68;260;55;0;0;0
62;84;169;1;29,41073492;0;1;0;1;0;1;0;0;0;0;0;0;140;70;0;0;0;1;0;1;0;3;0;0;0;0;0;0;0;1;0;0;0;96;1,3;210;104;31;11;51;14,3;4,5;144;9400;42;54;165;45;3;4;1
54;68;166;1;24,67702134;0;1;0;1;0;0;0;0;0;0;0;0;140;70;0;0;0;0;0;1;1;0;0;0;0;0;1;0;0;0;0;0;0;90;1,2;190;140;51;14;19;14,2;4;139;6600;28;65;174;25;0;4;1
64;81;168;1;28,69897959;1;1;0;0;0;1;0;0;0;0;0;1;130;70;0;0;0;0;0;1;0;0;0;0;0;0;0;0;0;0;0;0;0;141;1,1;143;96;34;16;24;13,8;3,7;142;8700;35;60;212;55;0;0;1
49;53;155;2;22,0603538;0;0;0;0;0;0;0;0;0;1;0;0;130;85;0;0;0;1;0;0;0;0;1;0;0;0;0;0;1;1;0;0;0;126;0,8;157;71;36;11;3;11,1;4,1;145;13000;26;67;283;45;0;2;1
51;74;169;1;25,90945695;0;0;1;0;0;1;0;0;0;0;0;1;110;70;0;0;0;0;0;1;0;0;0;0;0;0;0;0;0;0;0;0;3;110;1,1;166;180;111;13;17;13,4;3,9;140;8500;32;59;263;45;0;2;1
49;80;175;1;26,12244898;0;1;0;0;0;1;0;0;0;0;0;0;135;80;0;0;0;0;0;1;0;0;0;0;0;0;0;0;0;0;0;0;0;91;1;141;89;25;16;5;15,9;4,1;144;10400;20;74;266;50;0;2;1
48;89;155;2;37,04474506;0;0;0;0;0;1;0;0;0;0;0;1;120;80;0;0;0;0;0;1;1;0;0;0;0;0;0;0;1;0;0;0;0;140;0,9;46;142;83;9;67;11,3;4,1;143;6400;24;74;309;55;0;0;0
38;75;169;1;26,25958475;0;0;0;0;0;1;0;0;0;0;0;0;130;80;0;0;0;0;0;0;1;0;0;1;0;0;0;0;0;0;0;0;0;97;1;209;80;28;26;3;13,7;4,3;146;6200;37;56;228;55;0;0;0
52;75;163;1;28,22838647;0;0;0;0;0;1;0;0;0;0;0;0;100;64;0;0;0;0;0;0;0;0;1;0;0;0;0;0;0;0;0;0;0;84;1,1;388;95;34;9;4;13,4;4,2;141;5700;35;55;174;45;0;2;0
67;75;154;2;31,62421994;0;0;0;0;0;1;0;0;0;0;0;1;110;70;0;0;0;0;0;0;0;0;1;0;0;0;0;0;0;0;0;0;0;87;0,9;94;52;32;23;45;12,1;4,2;146;7700;35;55;213;55;0;0;0
56;82;178;1;25,88057064;0;0;0;0;0;1;0;0;0;0;0;0;100;70;0;0;0;0;0;0;1;0;0;1;0;0;0;0;0;0;0;0;0;102;1,3;95;93;44;11;5;17,5;3,8;141;9900;23;72;176;55;0;4;0
56;75;170;1;25,95155709;1;0;0;0;0;1;0;0;0;0;0;1;90;70;0;0;0;0;0;1;0;0;0;0;0;0;0;0;1;0;0;0;0;139;1,3;140;90;30;24;27;14;3,9;138;7600;36;50;238;55;0;2;1
53;61;162;1;23,24340802;1;1;0;0;0;0;0;0;0;0;0;0;140;70;0;0;0;1;0;1;1;0;0;0;0;0;0;0;0;0;0;1;0;151;0,8;680;56;39;17;25;11;3,9;138;5100;35;58;170;25;0;4;1
49;78;172;1;26,36560303;0;0;0;0;0;1;0;0;0;0;0;0;100;70;0;0;0;0;0;0;0;0;1;0;0;0;0;0;0;0;0;0;0;90;1,1;98;129;52;15;15;14,7;4,1;141;7900;32;58;252;55;0;0;0
57;64;163;1;24,08822312;0;1;0;0;0;0;0;0;0;0;0;1;140;70;0;0;0;0;0;1;0;0;0;0;0;0;0;0;0;0;0;0;0;85;0,8;94;148;30;14;12;13,9;4,3;142;5600;39;49;293;55;0;2;1
51;75;164;1;27,88518739;0;0;0;0;0;1;0;0;0;0;0;0;120;80;0;0;0;0;0;0;1;0;1;0;0;0;0;0;0;0;0;0;3;83;1;88;67;44;12;10;12,3;3,8;143;5800;20;71;242;55;0;2;0
50;98;176;1;31,63739669;0;1;0;1;0;1;0;0;0;0;0;0;160;60;1;0;0;0;0;0;1;0;0;1;0;0;0;0;0;1;0;0;0;94;1,6;74;90;49;14;1;13,6;3,4;140;5200;34;57;224;55;0;2;0
52;60;154;2;25,29937595;1;1;0;0;0;1;0;0;0;0;0;0;140;75;0;0;0;0;0;1;1;0;0;0;0;0;0;0;0;0;0;0;0;208;0,9;115;135;28;11;23;12,4;4,6;138;6600;27;67;205;60;0;2;1
48;82;156;1;33,69493754;1;1;0;0;0;1;0;0;0;0;0;0;150;80;0;0;0;0;0;1;1;2;0;0;0;0;0;0;0;0;0;0;0;232;1,3;90;43;35;25;11;14,4;4,4;141;9200;26;66;252;40;0;0;1
61;92;175;1;30,04081633;0;0;1;0;0;1;0;0;0;0;0;0;130;75;0;0;0;0;0;1;0;0;0;0;0;0;0;0;0;0;0;0;0;108;0,8;130;108;39;17;3;14;4,2;139;5900;22;65;170;45;0;2;1
56;72;163;2;27,09925101;0;0;0;0;0;1;0;0;0;0;0;1;120;70;0;0;0;0;0;0;0;0;1;0;0;0;0;0;1;0;0;0;0;80;0,8;55;101;44;19;8;12,8;3,9;142;7800;28;64;243;50;1;2;0
70;53;145;2;25,20808561;0;1;0;0;0;1;0;0;0;0;0;0;130;65;0;0;0;1;0;1;0;0;0;0;0;0;0;0;1;1;0;0;0;99;1,1;110;140;35;18;41;11,2;4,4;143;8900;54;38;234;45;0;2;1
48;80;167;2;28,68514468;0;0;0;0;0;1;0;0;0;0;0;1;130;80;0;0;0;0;0;0;0;0;1;0;0;0;0;0;0;0;0;0;0;83;1,1;76;90;45;15;20;11;4;140;8200;30;60;330;55;0;0;0
64;65;165;1;23,87511478;0;0;1;0;0;0;0;0;0;0;0;0;130;80;0;0;0;0;0;1;1;2;0;0;0;0;0;0;0;0;0;0;2;88;1;70;58;31;13;13;11,2;4,3;141;8500;13;79;183;25;4;4;1
76;60;164;1;22,30814991;0;0;0;1;0;0;0;0;0;0;0;0;130;70;0;0;0;0;0;0;1;0;0;0;0;0;0;0;1;0;0;0;0;96;1,1;90;145;48;25;12;12,1;4,3;131;7100;32;61;158;50;0;2;0
76;75;152;2;32,46191136;1;1;0;0;0;1;0;0;0;0;0;0;140;80;0;0;0;0;0;1;1;3;0;0;0;0;0;0;0;0;0;0;0;160;1,9;236;141;52;31;37;13;3,9;140;7400;21;69;175;50;0;2;1
55;71;150;2;31,55555556;1;1;0;0;0;1;0;0;0;0;0;1;150;100;0;0;0;0;0;1;1;0;0;0;0;0;0;0;1;1;0;0;0;256;1;172;70;26;16;56;9;4,3;141;14000;20;75;213;40;2;2;1
60;65;160;2;25,390625;0;1;0;0;0;1;0;0;0;0;0;0;140;70;0;0;0;0;0;1;0;0;0;0;0;0;0;0;0;1;0;0;0;95;0,9;103;75;38;12;64;13,2;4,2;138;6300;34;60;196;50;0;2;1
55;66;152;2;28,56648199;0;0;0;0;0;1;0;0;0;0;0;1;100;70;0;0;0;0;0;0;0;0;1;0;0;0;0;0;1;1;0;0;0;92;1,1;244;160;36;18;31;13,9;4,3;144;5100;60;40;250;55;0;0;0
75;58;160;2;22,65625;0;1;0;0;0;0;0;0;0;0;0;0;140;90;0;0;0;0;0;1;0;0;0;0;0;0;0;0;0;1;0;0;0;87;1,2;83;30;27;20;32;14,5;4,3;133;5500;31;62;211;40;1;2;1
73;74;160;2;28,90625;0;1;0;0;0;1;0;0;0;1;0;1;130;70;0;0;0;0;0;1;0;0;0;0;0;0;0;0;0;0;0;0;0;85;1,2;151;72;36;17;20;13;4,6;138;7000;41;54;188;50;0;0;1
46;71;160;2;27,734375;1;1;0;0;1;1;0;0;0;0;0;0;140;90;0;0;0;0;0;1;0;0;0;0;0;0;0;0;0;1;0;0;0;114;0,7;242;147;50;11;18;12,4;3,8;144;7700;55;40;240;55;0;2;1
49;66;167;1;23,66524436;0;0;1;0;0;0;0;0;0;0;0;0;120;70;0;0;0;0;0;0;0;0;1;0;0;0;0;0;0;0;0;0;0;121;1,2;373;156;36;14;7;13,1;4,2;142;17800;9;89;336;55;0;0;0
71;69;156;2;28,3530572;1;1;0;0;0;1;0;0;0;0;0;1;160;90;1;0;0;0;0;0;1;0;1;0;0;0;0;0;1;0;0;0;0;160;1;292;128;46;12;15;11,2;4,8;143;5200;25;65;209;55;0;0;1
55;92;173;1;30,73941662;0;0;0;0;0;1;0;0;0;0;0;0;120;80;0;0;0;0;0;1;0;2;0;0;0;0;0;0;0;0;0;0;0;125;1,2;158;95;34;14;5;13,6;4;139;5200;18;72;131;50;0;2;1
51;85;172;1;28,73174689;0;1;0;0;0;1;0;0;0;0;0;0;160;70;0;0;0;0;0;0;0;0;0;0;0;0;0;0;0;1;0;0;0;76;1,1;221;111;32;14;68;11;4,4;140;6100;26;64;275;50;0;2;1
70;70;161;2;27,00513097;0;1;0;0;0;1;0;0;0;0;0;0;140;70;0;0;0;0;0;0;0;0;0;1;0;0;0;0;0;1;0;0;0;98;1;166;122;40;11;10;13,2;4,4;143;5500;31;57;182;50;0;2;0
56;60;158;2;24,03460984;0;0;0;0;0;0;0;0;0;0;0;1;100;70;0;0;0;0;0;0;0;0;1;0;0;0;0;0;0;0;0;0;0;104;0,8;227;127;47;16;19;12,6;4,3;140;7400;23;70;270;55;0;0;0
50;80;175;1;26,12244898;0;1;0;0;0;1;0;0;0;0;0;0;140;80;0;0;0;0;0;0;1;0;0;0;0;0;0;0;0;0;1;0;0;86;1,3;114;125;44;12;17;14,9;3,9;153;5700;36;57;190;50;0;2;0
56;62;154;2;26,14268848;0;0;0;0;0;1;0;0;0;0;0;1;110;70;0;0;0;0;0;0;0;0;1;0;0;0;0;0;0;1;0;0;0;151;1,4;124;80;45;41;19;13,9;4,5;138;5700;37;55;240;45;0;4;0
67;68;150;2;30,22222222;0;1;0;0;0;1;0;0;0;0;0;1;140;70;0;0;0;0;0;0;0;0;1;0;0;0;0;0;0;0;1;0;0;98;0,7;93;92;47;21;24;13,8;4,7;144;6800;33;57;301;50;0;0;1
67;75;155;2;31,21748179;0;0;0;0;0;1;0;0;0;0;0;1;110;70;0;0;0;0;0;0;1;0;0;0;0;0;0;0;1;1;0;0;0;93;0,8;90;112;42;11;20;13,8;3,8;141;8700;36;51;196;55;0;2;0
58;75;166;1;27,21730295;0;0;0;0;1;1;0;0;0;0;0;1;110;70;0;0;0;0;0;0;0;0;1;0;0;0;0;0;1;0;0;0;0;86;1,2;84;72;27;15;2;15,1;3,7;141;7300;33;62;181;55;0;0;0
53;79;175;1;25,79591837;0;1;0;0;0;1;0;0;0;0;0;0;140;85;0;0;0;0;0;0;0;0;1;0;0;0;0;0;0;0;0;0;0;85;1,1;112;99;15,9;14;2;12,9;3,8;137;5800;23;69;198;45;0;0;0
57;85;174;1;28,07504294;1;1;0;0;0;1;0;0;0;0;0;1;140;80;0;0;0;1;0;0;0;0;0;0;0;0;0;0;0;0;1;0;0;190;1,2;96;112;30;17;11;15,6;3,9;142;7800;38;49;301;60;0;2;0
59;79;159;1;31,24876389;0;0;0;0;0;1;0;0;0;0;0;0;100;60;0;0;0;0;0;0;0;0;1;0;0;0;0;0;0;0;0;0;0;90;1,1;450;90;30;14;5;15,2;3,6;141;6500;36;59;177;50;0;2;0
64;70;175;1;22,85714286;1;0;1;0;0;0;0;0;0;0;0;1;100;80;0;0;0;1;0;0;1;3;1;0;0;0;0;0;1;1;0;0;0;112;0,8;147;82;25;20;67;12,3;3,7;140;11300;23;70;266;50;0;4;1
62;48;152;2;20,77562327;0;1;0;0;0;0;0;0;0;0;0;1;180;80;0;0;0;0;0;0;1;0;0;1;0;0;0;0;0;0;0;0;2;94;0,8;100;78;41;22;49;9;3,6;143;4800;30;56;360;45;0;2;0
42;63;163;1;23,71184463;0;0;0;0;1;0;0;0;0;0;0;0;120;70;0;0;0;0;0;0;1;0;1;0;0;0;0;0;0;0;0;0;0;202;1;204;120;41;19;3;11;3,9;141;8400;45;47;292;50;0;2;0
30;100;172;1;33,80205516;0;0;1;0;1;1;0;0;0;0;0;0;110;60;0;0;0;0;0;0;0;0;1;0;0;0;0;0;0;0;0;0;0;83;1;205;97;53;20;16;13,1;4;143;9100;39;60;294;55;1;0;0
58;84;168;1;29,76190476;0;0;0;0;0;1;0;0;0;0;0;0;100;76;0;0;0;0;0;1;0;0;0;0;0;0;0;0;0;0;0;0;0;92;1;112;115;44;13;13;12,3;4,8;146;8500;34;58;251;45;0;0;1
55;64;152;2;27,70083102;0;0;0;0;0;1;0;0;0;0;0;0;100;60;0;0;0;1;0;0;1;0;1;0;0;0;0;0;0;0;0;0;2;86;0,9;111;40;23;23;3;12,4;4;139;11400;16;80;377;40;0;2;0
48;77;160;2;30,078125;0;1;0;0;1;1;0;0;0;0;0;0;130;70;0;0;0;0;0;0;0;0;0;1;0;0;0;0;0;0;0;0;3;83;1;93;112;42;13;20;12,8;4;140;9000;35;55;279;55;0;0;0
57;90;159;2;35,5998576;1;0;0;0;0;1;0;0;0;0;0;0;100;60;0;0;0;0;0;0;1;0;1;0;0;0;0;0;0;0;0;0;0;96;1;116;130;49;14;31;10,1;3,8;141;3800;48;40;208;55;0;0;0
56;85;170;2;29,41176471;0;1;1;0;0;1;0;0;0;0;0;0;120;80;0;0;0;0;0;1;0;0;0;0;0;0;0;0;0;1;0;0;0;78;0,7;139;124;34;16;13;14,7;4,4;147;6000;32;55;302;55;0;0;1
